P(s)
0.0
0.1832151300236407
0.9973947025618761
0.4050230313665274
0.1666666666666666
0.09753639417693169
0.0657537347215935
0.050560512468542644
0.040703052728954685
0.03390226794482114
0.02647754137115838
0.023069567296198915
0.020913926499032898
0.017241379310344813
0.01571004453240971
0.013892365456821019
0.01266464032421479
0.013586259933350425
0.013492475350285424
0.01208300499080641
0.010106382978723407
0.010368973875572316
0.009547190398254232
0.008289582757667868
0.008118701007838744
0.008652482269503547
0.010494537090281768
0.00961818711745847
0.00783096926713948
0.007641594246329038
0.007598784194528872
0.005858772741288932
0.007196495619524404
0.007303906001905363
0.006447453255963893
0.005073649754500819
0.004321808510638298
0.003377237419790611
0.003431708991077556
0.004534356470177887
0.003900709219858154
0.004688063469166968
0.005135730007336758
0.005039193729003362
0.005129179331306989
0.004835589941972922
0.003349093774625689
0.0030108390204737047
0.0018412438625204587
0.0025031289111389233
0.0029787234042553193
0.0026052974381241853
0.002881205673758865
0.0020371208691715714
0.0027752081406105457
0.0018912529550827418
0.0021760154738878134
0.001979218208807521
0.0017730496453900709
0.0041515308770108976
0.004255319148936172
0.0038188761593016913
0.0033594624860022394
0.0025876940770557795
0.003546099290780142
0.003647416413373859
0.006883604505632038
0.006125080593165697
0.003656914893617022
0.004118050789293068
0.004609929078014185
0.004768892149669846
0.0034194528875379935
0.0035460992907801418
0.0040916530278232435
0.0042553191489361685
0.0039893617021276575
0.002312673450508788
0.001450676982591876
0.001519756838905775
0.0015957446808510644
0.0022396416573348273
0.0023640661938534283
0.003754693366708385
0.0026595744680851063
0.002127659574468085
0.0022796352583586625
0.0024549918166939444
0.0035460992907801418
0.002901353965183752
0.002127659574468085
0.0035460992907801405
0.002659574468085106
0.00303951367781155
0.0
0.0
0.0
0.0
0.0
0.0
