P(s)
0.0
0.18150252525252525
0.9971301020408165
0.40931056701030893
0.17220052083333331
0.10180921052631577
0.06898271276595744
0.05241935483870965
0.04093070652173914
0.03416895604395604
0.02482638888888889
0.022296348314606747
0.020951704545454544
0.016522988505747113
0.015625000000000007
0.015441176470588232
0.013764880952380952
0.015813253012048195
0.01619664634146342
0.014853395061728392
0.012304687500000003
0.012262658227848104
0.011418269230769232
0.009131493506493508
0.009457236842105263
0.009791666666666666
0.012246621621621618
0.010916095890410961
0.00824652777777778
0.00836267605633803
0.008482142857142853
0.007019927536231888
0.009191176470588234
0.009328358208955221
0.006865530303030302
0.004086538461538462
0.00390625
0.003224206349206349
0.0030241935483870963
0.0048668032786885265
0.003645833333333331
0.004502118644067797
0.006196120689655174
0.007127192982456143
0.0069754464285714255
0.005681818181818182
0.0034722222222222216
0.003537735849056603
0.002103365384615386
0.0030637254901960775
0.003125
0.002869897959183673
0.0029296874999999996
0.002327127659574468
0.003057065217391304
0.0020833333333333333
0.002130681818181818
0.0021802325581395344
0.002232142857142857
0.005716463414634148
0.0054687500000000005
0.004807692307692308
0.004523026315789474
0.0029560810810810812
0.003906249999999999
0.004910714285714286
0.009191176470588234
0.0075757575757575725
0.004882812500000001
0.005040322580645162
0.00625
0.0059267241379310324
0.004464285714285714
0.005208333333333333
0.005408653846153848
0.004375
0.003906249999999999
0.0006793478260869567
0.0007102272727272726
0.0
0.0
0.0
0.0
0.0
0.0009765624999999998
0.0
0.0
0.0
0.0
0.0
0.0
0.00173611111111111
0.003906249999999999
0.002232142857142857
0.0
0.0
0.0
0.0
0.0
0.0
