P(s)
0.0
0.181379007465964
0.9971901804199943
0.4062453309427756
0.1701388888888889
0.10175438596491225
0.06860931236509404
0.052672588436964284
0.04080025204788912
0.03376333811116419
0.02463768115942029
0.0216577104706074
0.019762845849802372
0.015658837248042637
0.01466127401415572
0.014492753623188403
0.012939958592132504
0.015016588091496424
0.015376458112407218
0.014134907854714615
0.011775362318840583
0.01137405980554027
0.010590858416945374
0.008469791078486732
0.008771929824561401
0.009082125603864732
0.011359185272228747
0.010125074449076833
0.007850241545893722
0.007960808328230252
0.008074534161490678
0.006511237135055664
0.008525149190110826
0.008652390222799044
0.006368028107158541
0.0037904124860646603
0.0036231884057971015
0.0029905682079595123
0.0028050490883590458
0.004751722499406036
0.0033816425120772923
0.004421518054532056
0.005747126436781611
0.006610729722857872
0.00646997929606625
0.005533596837944664
0.0034889962426194305
0.00328137817883511
0.002229654403567448
0.0031258880363739692
0.0034782608695652175
0.0032534753031647438
0.003623188405797101
0.0027752081406105457
0.003780718336483932
0.0025764895330112722
0.0029644268774703555
0.0026963262554769124
0.0024154589371980675
0.0056557087310003555
0.005434782608695653
0.004830917874396136
0.004195270785659802
0.0027418723070896985
0.004025764895330112
0.004968944099378882
0.009377664109121909
0.007905138339920945
0.004528985507246378
0.004675081813931744
0.005797101449275362
0.005497251374312842
0.004140786749482401
0.004830917874396135
0.005574136008918619
0.0052173913043478265
0.004227053140096618
0.0025204788909892885
0.001976284584980237
0.0020703933747412005
0.0021739130434782613
0.003051106025934401
0.00322061191626409
0.0025575447570332483
0.0018115942028985505
0.0
0.0
0.0
0.0
0.0
0.0
0.001610305958132044
0.0036231884057971006
0.0020703933747412005
0.0
0.0
0.0
0.0
0.0
0.0
