P(s)
0.0
0.18028385116992712
0.9972875226039786
0.40976119013441165
0.1695675105485232
0.09940039973351096
0.0670616751952599
0.05240234109160199
0.0410016510731976
0.034497148421199046
0.026300984528832633
0.023040819229128158
0.021576524741081713
0.01804161210533972
0.01619075654989698
0.015040953090096792
0.013713080168776374
0.014793350617660517
0.014819388700216124
0.013439599937490231
0.011234177215189876
0.011216151257811254
0.010223953261927947
0.008384021042248892
0.00866089273817455
0.00860759493670886
0.01026342798494697
0.008843419455522803
0.006856540084388188
0.006953111071492247
0.007052441229656416
0.005687029902770137
0.007446016381236037
0.007746079727942562
0.005945531261986958
0.003700097370983447
0.003362341772151899
0.0026120152702431183
0.0026541445487954255
0.004150238638721728
0.0031645569620253142
0.004076378459558035
0.0050196420776953314
0.0057739284921163704
0.005650994575045206
0.0048331415420023015
0.0032817627754336606
0.0028660138524002864
0.002190847127555989
0.002978406552494415
0.0035443037974683548
0.0030999741668819424
0.0034282700421940926
0.0024239159709130084
0.003302146395156852
0.0022503516174402246
0.002589182968929804
0.0023550191345304682
0.002109704641350211
0.004939796233405374
0.005063291139240507
0.004219409282700422
0.003664223850766156
0.0023947998631542932
0.003516174402250352
0.00433996383363472
0.00819061801935964
0.006904487917146142
0.003955696202531647
0.00408329930583912
0.005063291139240507
0.004801396769969444
0.003616636528028933
0.004219409282700422
0.004868549172346642
0.004556962025316456
0.0036919831223628688
0.0022014309301045688
0.0017261219792865361
0.0018083182640144665
0.0018987341772151905
0.002664890073284477
0.0028129395218002813
0.0022338049143708115
0.0015822784810126582
0.0
0.0
0.0
0.0
0.0
0.0
0.0014064697609001396
0.0031645569620253155
0.0018083182640144665
0.0
0.0
0.0
0.0
0.0
0.0
