P(s)
0.0
0.18132942326490714
0.9972021066491115
0.4110409045560356
0.172883064516129
0.10186757215619692
0.06880576527110499
0.05220256677072491
0.041023842917251065
0.03403048564338887
0.02526881720430108
0.02283436027546213
0.021444281524926685
0.017055988134964763
0.016129032258064523
0.0159392789373814
0.014208909370199693
0.016323357947920718
0.01671911880409127
0.015332536837913179
0.012500000000000004
0.012249897917517358
0.011166253101736974
0.009216589861751154
0.00933786078098472
0.00967741935483871
0.011987794245858758
0.011047282368537342
0.008512544802867386
0.008405270331667426
0.00875576036866359
0.007246376811594207
0.009487666034155596
0.00962927298988926
0.0065982404692082105
0.003970223325062035
0.003276209677419355
0.0028161802355350742
0.002601456815816857
0.0047593865679534655
0.003763440860215051
0.004647348277747403
0.006395995550611793
0.007357102433503116
0.007200460829493084
0.005865102639296188
0.003584229390681003
0.0036518563603164934
0.0021712158808933017
0.0031625553447185316
0.0032258064516129032
0.002962475312705727
0.0030241935483870963
0.0024021962937542897
0.0031556802244039265
0.002150537634408602
0.00219941348973607
0.0022505626406601645
0.002304147465437788
0.005900865460267507
0.005645161290322581
0.004962779156327543
0.00466893039049236
0.0030514385353095034
0.004032258064516128
0.005069124423963133
0.009487666034155596
0.007820136852394913
0.005040322580645162
0.005202913631633716
0.0064516129032258064
0.006117908787541711
0.004608294930875576
0.005376344086021505
0.005583126550868488
0.004516129032258065
0.004032258064516128
0.0007012622720897618
0.0007331378299120234
0.0
0.0
0.0
0.0
0.0
0.001008064516129032
0.0
0.0
0.0
0.0
0.0
0.0
0.0017921146953405005
0.004032258064516128
0.002304147465437788
0.0
0.0
0.0
0.0
0.0
0.0
