P(s)
0.0
0.18532261389404245
0.9972927946688881
0.41489585524931605
0.17495748299319727
0.09967776584317936
0.06990881458966564
0.052885670397191116
0.043034605146406404
0.037900874635568516
0.027437641723356013
0.024764962164641142
0.0234230055658627
0.018296973961998576
0.017085904129093502
0.017286914765906363
0.014820213799805639
0.016474059503319403
0.018168242906918868
0.016376921138825898
0.012755102040816334
0.011883234306380787
0.012558869701726847
0.010071561091969257
0.010472610096670245
0.01142857142857143
0.014616657473800327
0.013419066256639642
0.010204081632653064
0.009772923253808566
0.01020408163265306
0.00857734398107069
0.011704681872749098
0.010051781906792566
0.006184291898577612
0.0034536891679748825
0.0028698979591836736
0.003239390994493035
0.002962475312705727
0.005687520910003348
0.004761904761904761
0.00588031822898651
0.008092892329345534
0.008592910848549948
0.008381924198250726
0.005936920222634508
0.0030234315948601655
0.004235656526761648
0.001962323390894821
0.004001600640256102
0.004081632653061224
0.0037484381507705117
0.0038265306122448974
0.00303951367781155
0.003992901508429458
0.0027210884353741495
0.0027829313543599257
0.002373042240151874
0.002429543245869777
0.007466401194624194
0.0071428571428571435
0.006279434850863423
0.005907626208378088
0.003861003861003861
0.00510204081632653
0.006413994169096209
0.012004801920768306
0.009894867037724178
0.006377551020408164
0.006583278472679395
0.00816326530612245
0.00774102744546094
0.0058309037900874635
0.006802721088435374
0.007064364207221352
0.005714285714285715
0.00510204081632653
0.0008873114463176577
0.0009276437847866418
0.0
0.0
0.0
0.0
0.0
0.0012755102040816326
0.0
0.0
0.0
0.0
0.0
0.0
0.002267573696145124
0.00510204081632653
0.0029154518950437317
0.0
0.0
0.0
0.0
0.0
0.0
