P(s)
0.0
0.18210678210678205
0.9973760932944606
0.4094256259204714
0.1741071428571428
0.10135338345864663
0.06838905775075989
0.05130568356374807
0.04006211180124225
0.03799058084772371
0.028571428571428567
0.02600321027287319
0.023376623376623367
0.017077175697865345
0.016943521594684385
0.018151260504201676
0.013265306122448983
0.014457831325301207
0.01637630662020906
0.012345679012345678
0.01035714285714286
0.011934900542495483
0.010622710622710625
0.007792207792207793
0.008270676691729319
0.011428571428571429
0.015057915057915056
0.013307240704500978
0.010317460317460317
0.00885311871227364
0.009387755102040816
0.007867494824016562
0.012184873949579834
0.012366737739872064
0.00606060606060606
0.003076923076923077
0.002232142857142857
0.0027210884353741495
0.0027649769585253456
0.0037470725995316177
0.0033333333333333327
0.005326876513317191
0.009852216748768475
0.010526315789473686
0.010714285714285713
0.007272727272727272
0.0031746031746031737
0.005390835579514825
0.002747252747252748
0.005602240896358543
0.003999999999999999
0.0011661807580174925
0.0017857142857142857
0.00182370820668693
0.0037267080745341614
0.0019047619047619048
0.0019480519480519478
0.00132890365448505
0.002040816326530612
0.004878048780487805
0.004285714285714287
0.002197802197802198
0.003007518796992481
0.002316602316602317
0.003968253968253967
0.004897959183673469
0.013445378151260502
0.010389610389610388
0.006250000000000001
0.006451612903225808
0.009523809523809523
0.006896551724137931
0.00510204081632653
0.0031746031746031737
0.005494505494505496
0.004571428571428572
0.0035714285714285713
0.0012422360248447208
0.0012987012987012985
0.0
0.0
0.0
0.0
0.0
0.0
0.0
0.0
0.0
0.0
0.0
0.0
0.0031746031746031737
0.007142857142857143
0.004081632653061224
0.0
0.0
0.0
0.0
0.0
0.0
