P(s)
0.0
0.1816964829013022
0.9971723629210724
0.4075270152776049
0.16842369477911645
0.09879518072289153
0.06677774929505256
0.051431532581940644
0.04046621267679415
0.03376141930358797
0.026506024096385538
0.022607283064843657
0.021495071193866386
0.017864561695056076
0.016251050714485862
0.014741318214032594
0.013625932300631095
0.01451589490492089
0.014545988833382317
0.012791908374237689
0.010692771084337352
0.010675613847796252
0.009731232622798892
0.008136441871381631
0.008402029169308814
0.008674698795180723
0.010420058612829693
0.008912361775870608
0.007195448460508704
0.007296792805022909
0.007745266781411355
0.006286013619696179
0.007795889440113394
0.008092069771623803
0.0065717415115005475
0.004819277108433735
0.004329819277108434
0.003251099636641805
0.0033035367275553824
0.004740272565672527
0.003614457831325299
0.0044925464570145
0.005193186539260491
0.005495666878038472
0.005808950086058517
0.005038335158817087
0.003569834895136099
0.002955217094794271
0.002085264133456905
0.0028348688873139614
0.003373493975903615
0.002950577821490042
0.003263052208835341
0.0023071007433991286
0.0031430068098480877
0.002141900937081659
0.002464403066812705
0.002241524236480807
0.002008032128514056
0.0047017337643255955
0.004819277108433736
0.004324992276799506
0.0034876347495244138
0.002605014653207424
0.0033467202141900937
0.004130808950086058
0.007795889440113392
0.006571741511500545
0.004141566265060242
0.0038865137971239817
0.004819277108433736
0.00498545907769007
0.0038726333907056795
0.004016064257028112
0.0046339202965709
0.004337349397590362
0.003514056224899598
0.0020953378732320588
0.0016429353778751369
0.001721170395869191
0.0018072289156626513
0.0025364616360177557
0.002677376171352075
0.002126151665485471
0.0015060240963855422
0.0
0.0
0.0
0.0
0.0
0.0
0.0013386880856760363
0.003012048192771083
0.001721170395869191
0.0
0.0
0.0
0.0
0.0
0.0
