P(s)
0.0
0.18246292714377818
0.9973947025618759
0.4169774073261679
0.1781914893617021
0.10123180291153415
0.07129923042100497
0.053534660260809865
0.04347826086956523
0.03881225157820903
0.028132387706855794
0.025579727468324175
0.023936170212765947
0.018831010026901428
0.01731815932706581
0.01777221526908636
0.015197568389057753
0.0166623942578826
0.0179034769071095
0.016548463356973995
0.012765957446808517
0.011850255857796936
0.012002182214948174
0.009671179883945842
0.010078387458006717
0.011347517730496456
0.014663599769982745
0.013407169921305742
0.010047281323877071
0.009589451603236439
0.010030395136778116
0.008017267961763799
0.01157697121401752
0.01047951730708161
0.006447453255963893
0.003600654664484452
0.0029920212765957447
0.003377237419790611
0.0030885380919698007
0.005929543076386468
0.004964539007092197
0.006130544536602957
0.008437270726338961
0.008958566629339308
0.008738601823708204
0.006189555125725338
0.0031520882584712365
0.004014452027298274
0.0020458265139116217
0.004171881518564872
0.004255319148936169
0.0039079461571862786
0.003989361702127659
0.0031688546853779987
0.003700277520814061
0.0028368794326241132
0.002901353965183752
0.002474022761009401
0.0025329280648429585
0.007265179034769073
0.006914893617021277
0.006001091107474086
0.006159014557670773
0.003450258769407706
0.005319148936170213
0.006686930091185411
0.012515644555694616
0.010315925209542227
0.006648936170212767
0.006863417982155114
0.00851063829787234
0.008070432868672045
0.0060790273556231
0.0070921985815602835
0.007364975450081835
0.005957446808510639
0.005319148936170213
0.0009250693802035155
0.000967117988394584
0.0
0.0
0.0
0.0
0.0
0.0013297872340425532
0.0
0.0
0.0
0.0
0.0
0.0
0.002364066193853427
0.005319148936170213
0.00303951367781155
0.0
0.0
0.0
0.0
0.0
0.0
