P(s)
0.0
0.19404572036150977
0.9973147153598282
0.41671188279978294
0.18914473684210523
0.11745152354570641
0.07894736842105263
0.0548953027730617
0.04691075514874143
0.045112781954887216
0.028070175438596495
0.023063276167947955
0.019736842105263153
0.014519056261343012
0.014687882496940021
0.02043343653250774
0.014411027568922307
0.018389346861128725
0.020539152759948654
0.016894087069525665
0.016447368421052634
0.015323117921385746
0.014844804318488529
0.007518796992481204
0.008310249307479223
0.011228070175438597
0.012802275960170698
0.010093727469358327
0.007309941520467837
0.0051890289103039295
0.007518796992481203
0.0068649885583524015
0.014705882352941176
0.013354281225451686
0.005582137161084529
0.001619433198380567
0.003289473684210526
0.004177109440267335
0.004244482173174873
0.004314063848144953
0.002631578947368421
0.0044603033006244425
0.009981851179673323
0.0110803324099723
0.013157894736842105
0.011483253588516745
0.005847953216374269
0.009930486593843098
0.005060728744939272
0.009287925696594427
0.007368421052631578
0.001074113856068743
0.0010964912280701754
0.0
0.002288329519450801
0.0023391812865497076
0.003588516746411483
0.0024479804161566705
0.0037593984962406013
0.008985879332477534
0.007894736842105265
0.004048582995951417
0.00554016620498615
0.004267425320056899
0.005847953216374269
0.007518796992481203
0.024767801857585137
0.019138755980861243
0.011513157894736841
0.011884550084889645
0.017543859649122806
0.012704174228675136
0.009398496240601503
0.005847953216374269
0.008097165991902834
0.00631578947368421
0.006578947368421052
0.002288329519450801
0.0023923444976076554
0.0
0.0
0.0
0.0
0.0
0.0
0.0
0.0
0.0
0.0
0.0
0.0
0.005847953216374269
0.013157894736842105
0.007518796992481203
0.0
0.0
0.0
0.0
0.0
0.0
